[
  {
    "page": 1,
    "pages": 6,
    "per_page": 50,
    "total": 266,
    "sourceid": "2",
    "sourcename": "World Development Indicators",
    "lastupdated": "2022-07-20"
  },
  [
    {
      "indicator": {
        "id": "SP.DYN.LE00.FE.IN",
        "value": "Life expectancy at birth, female (years)"
      },
      "country": { "id": "ZH", "value": "Africa Eastern and Southern" },
      "countryiso3code": "AFE",
      "date": "2020",
      "value": 66.5346278673426,
      "unit": "",
      "obs_status": "",
      "decimal": 0
    },
    {
      "indicator": {
        "id": "SP.DYN.LE00.FE.IN",
        "value": "Life expectancy at birth, female (years)"
      },
      "country": { "id": "ZI", "value": "Africa Western and Central" },
      "countryiso3code": "AFW",
      "date": "2020",
      "value": 59.579346098832,
      "unit": "",
      "obs_status": "",
      "decimal": 0
    },
    {
      "indicator": {
        "id": "SP.DYN.LE00.FE.IN",
        "value": "Life expectancy at birth, female (years)"
      },
      "country": { "id": "1A", "value": "Arab World" },
      "countryiso3code": "ARB",
      "date": "2020",
      "value": 74.0005212954345,
      "unit": "",
      "obs_status": "",
      "decimal": 0
    },
    {
      "indicator": {
        "id": "SP.DYN.LE00.FE.IN",
        "value": "Life expectancy at birth, female (years)"
      },
      "country": { "id": "S3", "value": "Caribbean small states" },
      "countryiso3code": "CSS",
      "date": "2020",
      "value": 76.1621631560165,
      "unit": "",
      "obs_status": "",
      "decimal": 0
    },
    {
      "indicator": {
        "id": "SP.DYN.LE00.FE.IN",
        "value": "Life expectancy at birth, female (years)"
      },
      "country": { "id": "B8", "value": "Central Europe and the Baltics" },
      "countryiso3code": "CEB",
      "date": "2020",
      "value": 80.0366093391589,
      "unit": "",
      "obs_status": "",
      "decimal": 0
    },
    {
      "indicator": {
        "id": "SP.DYN.LE00.FE.IN",
        "value": "Life expectancy at birth, female (years)"
      },
      "country": { "id": "V2", "value": "Early-demographic dividend" },
      "countryiso3code": "EAR",
      "date": "2020",
      "value": 72.8368852085393,
      "unit": "",
      "obs_status": "",
      "decimal": 0
    },
    {
      "indicator": {
        "id": "SP.DYN.LE00.FE.IN",
        "value": "Life expectancy at birth, female (years)"
      },
      "country": { "id": "Z4", "value": "East Asia & Pacific" },
      "countryiso3code": "EAS",
      "date": "2020",
      "value": 79.0558769356122,
      "unit": "",
      "obs_status": "",
      "decimal": 0
    },
    {
      "indicator": {
        "id": "SP.DYN.LE00.FE.IN",
        "value": "Life expectancy at birth, female (years)"
      },
      "country": {
        "id": "4E",
        "value": "East Asia & Pacific (excluding high income)"
      },
      "countryiso3code": "EAP",
      "date": "2020",
      "value": 78.1199000124341,
      "unit": "",
      "obs_status": "",
      "decimal": 0
    },
    {
      "indicator": {
        "id": "SP.DYN.LE00.FE.IN",
        "value": "Life expectancy at birth, female (years)"
      },
      "country": {
        "id": "T4",
        "value": "East Asia & Pacific (IDA & IBRD countries)"
      },
      "countryiso3code": "TEA",
      "date": "2020",
      "value": 78.1479783288648,
      "unit": "",
      "obs_status": "",
      "decimal": 0
    },
    {
      "indicator": {
        "id": "SP.DYN.LE00.FE.IN",
        "value": "Life expectancy at birth, female (years)"
      },
      "country": { "id": "XC", "value": "Euro area" },
      "countryiso3code": "EMU",
      "date": "2020",
      "value": 84.1882391536566,
      "unit": "",
      "obs_status": "",
      "decimal": 0
    },
    {
      "indicator": {
        "id": "SP.DYN.LE00.FE.IN",
        "value": "Life expectancy at birth, female (years)"
      },
      "country": { "id": "Z7", "value": "Europe & Central Asia" },
      "countryiso3code": "ECS",
      "date": "2020",
      "value": 80.6296333891203,
      "unit": "",
      "obs_status": "",
      "decimal": 0
    },
    {
      "indicator": {
        "id": "SP.DYN.LE00.FE.IN",
        "value": "Life expectancy at birth, female (years)"
      },
      "country": {
        "id": "7E",
        "value": "Europe & Central Asia (excluding high income)"
      },
      "countryiso3code": "ECA",
      "date": "2020",
      "value": 77.0932955008332,
      "unit": "",
      "obs_status": "",
      "decimal": 0
    },
    {
      "indicator": {
        "id": "SP.DYN.LE00.FE.IN",
        "value": "Life expectancy at birth, female (years)"
      },
      "country": {
        "id": "T7",
        "value": "Europe & Central Asia (IDA & IBRD countries)"
      },
      "countryiso3code": "TEC",
      "date": "2020",
      "value": 77.4828038432488,
      "unit": "",
      "obs_status": "",
      "decimal": 0
    },
    {
      "indicator": {
        "id": "SP.DYN.LE00.FE.IN",
        "value": "Life expectancy at birth, female (years)"
      },
      "country": { "id": "EU", "value": "European Union" },
      "countryiso3code": "EUU",
      "date": "2020",
      "value": 83.3243589191303,
      "unit": "",
      "obs_status": "",
      "decimal": 0
    },
    {
      "indicator": {
        "id": "SP.DYN.LE00.FE.IN",
        "value": "Life expectancy at birth, female (years)"
      },
      "country": {
        "id": "F1",
        "value": "Fragile and conflict affected situations"
      },
      "countryiso3code": "FCS",
      "date": "2020",
      "value": 64.952843454105,
      "unit": "",
      "obs_status": "",
      "decimal": 0
    },
    {
      "indicator": {
        "id": "SP.DYN.LE00.FE.IN",
        "value": "Life expectancy at birth, female (years)"
      },
      "country": {
        "id": "XE",
        "value": "Heavily indebted poor countries (HIPC)"
      },
      "countryiso3code": "HPC",
      "date": "2020",
      "value": 65.5955145464134,
      "unit": "",
      "obs_status": "",
      "decimal": 0
    },
    {
      "indicator": {
        "id": "SP.DYN.LE00.FE.IN",
        "value": "Life expectancy at birth, female (years)"
      },
      "country": { "id": "XD", "value": "High income" },
      "countryiso3code": "",
      "date": "2020",
      "value": 83.0104083283774,
      "unit": "",
      "obs_status": "",
      "decimal": 0
    },
    {
      "indicator": {
        "id": "SP.DYN.LE00.FE.IN",
        "value": "Life expectancy at birth, female (years)"
      },
      "country": { "id": "XF", "value": "IBRD only" },
      "countryiso3code": "IBD",
      "date": "2020",
      "value": 76.1251286753478,
      "unit": "",
      "obs_status": "",
      "decimal": 0
    },
    {
      "indicator": {
        "id": "SP.DYN.LE00.FE.IN",
        "value": "Life expectancy at birth, female (years)"
      },
      "country": { "id": "ZT", "value": "IDA & IBRD total" },
      "countryiso3code": "IBT",
      "date": "2020",
      "value": 73.6068788689194,
      "unit": "",
      "obs_status": "",
      "decimal": 0
    },
    {
      "indicator": {
        "id": "SP.DYN.LE00.FE.IN",
        "value": "Life expectancy at birth, female (years)"
      },
      "country": { "id": "XH", "value": "IDA blend" },
      "countryiso3code": "IDB",
      "date": "2020",
      "value": 63.8556004843513,
      "unit": "",
      "obs_status": "",
      "decimal": 0
    },
    {
      "indicator": {
        "id": "SP.DYN.LE00.FE.IN",
        "value": "Life expectancy at birth, female (years)"
      },
      "country": { "id": "XI", "value": "IDA only" },
      "countryiso3code": "IDX",
      "date": "2020",
      "value": 67.8297554293214,
      "unit": "",
      "obs_status": "",
      "decimal": 0
    },
    {
      "indicator": {
        "id": "SP.DYN.LE00.FE.IN",
        "value": "Life expectancy at birth, female (years)"
      },
      "country": { "id": "XG", "value": "IDA total" },
      "countryiso3code": "IDA",
      "date": "2020",
      "value": 66.5093315070008,
      "unit": "",
      "obs_status": "",
      "decimal": 0
    },
    {
      "indicator": {
        "id": "SP.DYN.LE00.FE.IN",
        "value": "Life expectancy at birth, female (years)"
      },
      "country": { "id": "V3", "value": "Late-demographic dividend" },
      "countryiso3code": "LTE",
      "date": "2020",
      "value": 79.2381518382379,
      "unit": "",
      "obs_status": "",
      "decimal": 0
    },
    {
      "indicator": {
        "id": "SP.DYN.LE00.FE.IN",
        "value": "Life expectancy at birth, female (years)"
      },
      "country": { "id": "ZJ", "value": "Latin America & Caribbean" },
      "countryiso3code": "LCN",
      "date": "2020",
      "value": 78.9015799377221,
      "unit": "",
      "obs_status": "",
      "decimal": 0
    },
    {
      "indicator": {
        "id": "SP.DYN.LE00.FE.IN",
        "value": "Life expectancy at birth, female (years)"
      },
      "country": {
        "id": "XJ",
        "value": "Latin America & Caribbean (excluding high income)"
      },
      "countryiso3code": "LAC",
      "date": "2020",
      "value": 78.8659556502051,
      "unit": "",
      "obs_status": "",
      "decimal": 0
    },
    {
      "indicator": {
        "id": "SP.DYN.LE00.FE.IN",
        "value": "Life expectancy at birth, female (years)"
      },
      "country": {
        "id": "T2",
        "value": "Latin America & the Caribbean (IDA & IBRD countries)"
      },
      "countryiso3code": "TLA",
      "date": "2020",
      "value": 78.842006660345,
      "unit": "",
      "obs_status": "",
      "decimal": 0
    },
    {
      "indicator": {
        "id": "SP.DYN.LE00.FE.IN",
        "value": "Life expectancy at birth, female (years)"
      },
      "country": {
        "id": "XL",
        "value": "Least developed countries: UN classification"
      },
      "countryiso3code": "LDC",
      "date": "2020",
      "value": 67.5542060218009,
      "unit": "",
      "obs_status": "",
      "decimal": 0
    },
    {
      "indicator": {
        "id": "SP.DYN.LE00.FE.IN",
        "value": "Life expectancy at birth, female (years)"
      },
      "country": { "id": "XO", "value": "Low & middle income" },
      "countryiso3code": "LMY",
      "date": "2020",
      "value": 73.5192197367984,
      "unit": "",
      "obs_status": "",
      "decimal": 0
    },
    {
      "indicator": {
        "id": "SP.DYN.LE00.FE.IN",
        "value": "Life expectancy at birth, female (years)"
      },
      "country": { "id": "XM", "value": "Low income" },
      "countryiso3code": "",
      "date": "2020",
      "value": 65.9930095344335,
      "unit": "",
      "obs_status": "",
      "decimal": 0
    },
    {
      "indicator": {
        "id": "SP.DYN.LE00.FE.IN",
        "value": "Life expectancy at birth, female (years)"
      },
      "country": { "id": "XN", "value": "Lower middle income" },
      "countryiso3code": "",
      "date": "2020",
      "value": 71.1340499417826,
      "unit": "",
      "obs_status": "",
      "decimal": 0
    },
    {
      "indicator": {
        "id": "SP.DYN.LE00.FE.IN",
        "value": "Life expectancy at birth, female (years)"
      },
      "country": { "id": "ZQ", "value": "Middle East & North Africa" },
      "countryiso3code": "MEA",
      "date": "2020",
      "value": 76.2474398478239,
      "unit": "",
      "obs_status": "",
      "decimal": 0
    },
    {
      "indicator": {
        "id": "SP.DYN.LE00.FE.IN",
        "value": "Life expectancy at birth, female (years)"
      },
      "country": {
        "id": "XQ",
        "value": "Middle East & North Africa (excluding high income)"
      },
      "countryiso3code": "MNA",
      "date": "2020",
      "value": 75.8647620521985,
      "unit": "",
      "obs_status": "",
      "decimal": 0
    },
    {
      "indicator": {
        "id": "SP.DYN.LE00.FE.IN",
        "value": "Life expectancy at birth, female (years)"
      },
      "country": {
        "id": "T3",
        "value": "Middle East & North Africa (IDA & IBRD countries)"
      },
      "countryiso3code": "TMN",
      "date": "2020",
      "value": 75.8640397695878,
      "unit": "",
      "obs_status": "",
      "decimal": 0
    },
    {
      "indicator": {
        "id": "SP.DYN.LE00.FE.IN",
        "value": "Life expectancy at birth, female (years)"
      },
      "country": { "id": "XP", "value": "Middle income" },
      "countryiso3code": "MIC",
      "date": "2020",
      "value": 74.4187396069895,
      "unit": "",
      "obs_status": "",
      "decimal": 0
    },
    {
      "indicator": {
        "id": "SP.DYN.LE00.FE.IN",
        "value": "Life expectancy at birth, female (years)"
      },
      "country": { "id": "XU", "value": "North America" },
      "countryiso3code": "NAC",
      "date": "2020",
      "value": 80.5798312610878,
      "unit": "",
      "obs_status": "",
      "decimal": 0
    },
    {
      "indicator": {
        "id": "SP.DYN.LE00.FE.IN",
        "value": "Life expectancy at birth, female (years)"
      },
      "country": { "id": "XY", "value": "Not classified" },
      "countryiso3code": "",
      "date": "2020",
      "value": null,
      "unit": "",
      "obs_status": "",
      "decimal": 0
    },
    {
      "indicator": {
        "id": "SP.DYN.LE00.FE.IN",
        "value": "Life expectancy at birth, female (years)"
      },
      "country": { "id": "OE", "value": "OECD members" },
      "countryiso3code": "OED",
      "date": "2020",
      "value": 82.4745566192024,
      "unit": "",
      "obs_status": "",
      "decimal": 0
    },
    {
      "indicator": {
        "id": "SP.DYN.LE00.FE.IN",
        "value": "Life expectancy at birth, female (years)"
      },
      "country": { "id": "S4", "value": "Other small states" },
      "countryiso3code": "OSS",
      "date": "2020",
      "value": 70.7165318868262,
      "unit": "",
      "obs_status": "",
      "decimal": 0
    },
    {
      "indicator": {
        "id": "SP.DYN.LE00.FE.IN",
        "value": "Life expectancy at birth, female (years)"
      },
      "country": { "id": "S2", "value": "Pacific island small states" },
      "countryiso3code": "PSS",
      "date": "2020",
      "value": 72.2211107768251,
      "unit": "",
      "obs_status": "",
      "decimal": 0
    },
    {
      "indicator": {
        "id": "SP.DYN.LE00.FE.IN",
        "value": "Life expectancy at birth, female (years)"
      },
      "country": { "id": "V4", "value": "Post-demographic dividend" },
      "countryiso3code": "PST",
      "date": "2020",
      "value": 82.9865381499328,
      "unit": "",
      "obs_status": "",
      "decimal": 0
    },
    {
      "indicator": {
        "id": "SP.DYN.LE00.FE.IN",
        "value": "Life expectancy at birth, female (years)"
      },
      "country": { "id": "V1", "value": "Pre-demographic dividend" },
      "countryiso3code": "PRE",
      "date": "2020",
      "value": 63.1662307535233,
      "unit": "",
      "obs_status": "",
      "decimal": 0
    },
    {
      "indicator": {
        "id": "SP.DYN.LE00.FE.IN",
        "value": "Life expectancy at birth, female (years)"
      },
      "country": { "id": "S1", "value": "Small states" },
      "countryiso3code": "SST",
      "date": "2020",
      "value": 71.8221728282864,
      "unit": "",
      "obs_status": "",
      "decimal": 0
    },
    {
      "indicator": {
        "id": "SP.DYN.LE00.FE.IN",
        "value": "Life expectancy at birth, female (years)"
      },
      "country": { "id": "8S", "value": "South Asia" },
      "countryiso3code": "SAS",
      "date": "2020",
      "value": 71.2582240284502,
      "unit": "",
      "obs_status": "",
      "decimal": 0
    },
    {
      "indicator": {
        "id": "SP.DYN.LE00.FE.IN",
        "value": "Life expectancy at birth, female (years)"
      },
      "country": { "id": "T5", "value": "South Asia (IDA & IBRD)" },
      "countryiso3code": "TSA",
      "date": "2020",
      "value": 71.2582240284502,
      "unit": "",
      "obs_status": "",
      "decimal": 0
    },
    {
      "indicator": {
        "id": "SP.DYN.LE00.FE.IN",
        "value": "Life expectancy at birth, female (years)"
      },
      "country": { "id": "ZG", "value": "Sub-Saharan Africa" },
      "countryiso3code": "SSF",
      "date": "2020",
      "value": 63.7481767962947,
      "unit": "",
      "obs_status": "",
      "decimal": 0
    },
    {
      "indicator": {
        "id": "SP.DYN.LE00.FE.IN",
        "value": "Life expectancy at birth, female (years)"
      },
      "country": {
        "id": "ZF",
        "value": "Sub-Saharan Africa (excluding high income)"
      },
      "countryiso3code": "SSA",
      "date": "2020",
      "value": 63.7466384587637,
      "unit": "",
      "obs_status": "",
      "decimal": 0
    },
    {
      "indicator": {
        "id": "SP.DYN.LE00.FE.IN",
        "value": "Life expectancy at birth, female (years)"
      },
      "country": {
        "id": "T6",
        "value": "Sub-Saharan Africa (IDA & IBRD countries)"
      },
      "countryiso3code": "TSS",
      "date": "2020",
      "value": 63.7481767962947,
      "unit": "",
      "obs_status": "",
      "decimal": 0
    },
    {
      "indicator": {
        "id": "SP.DYN.LE00.FE.IN",
        "value": "Life expectancy at birth, female (years)"
      },
      "country": { "id": "XT", "value": "Upper middle income" },
      "countryiso3code": "",
      "date": "2020",
      "value": 78.739821664151,
      "unit": "",
      "obs_status": "",
      "decimal": 0
    },
    {
      "indicator": {
        "id": "SP.DYN.LE00.FE.IN",
        "value": "Life expectancy at birth, female (years)"
      },
      "country": { "id": "1W", "value": "World" },
      "countryiso3code": "WLD",
      "date": "2020",
      "value": 75.0631150795581,
      "unit": "",
      "obs_status": "",
      "decimal": 0
    },
    {
      "indicator": {
        "id": "SP.DYN.LE00.FE.IN",
        "value": "Life expectancy at birth, female (years)"
      },
      "country": { "id": "AF", "value": "Afghanistan" },
      "countryiso3code": "AFG",
      "date": "2020",
      "value": 66.744,
      "unit": "",
      "obs_status": "",
      "decimal": 0
    }
  ]
]
